---
http_interactions:
- request:
    method: post
    uri: https://qa-login.uscourts.gov/services/cso-auth
    body:
      encoding: UTF-8
      string: '{"loginId":"<LOGIN>","password":"<PASSWORD>","redactFlag":"1"}'
    headers:
      User-Agent:
      - Faraday v1.8.0
      Content-Type:
      - application/json
      Accept:
      - application/json
      Accept-Encoding:
      - gzip;q=1.0,deflate;q=0.6,identity;q=0.3
  response:
    status:
      code: 200
      message: '200'
    headers:
      Date:
      - Fri, 29 Oct 2021 14:14:48 GMT
      Server:
      - Apache
      X-Content-Type-Options:
      - nosniff
      X-Frame-Options:
      - SAMEORIGIN
      Content-Length:
      - '163'
      X-Xss-Protection:
      - 1; mode=block
      Strict-Transport-Security:
      - max-age=10886400; includeSubDomains; preload
      X-Ua-Compatible:
      - IE=edge,chrome=1
      Content-Type:
      - application/json
      Set-Cookie:
      - BIGipServer~PCR-748~ASHCAPE_QA-HTTPS-POOL-0=rd748o00000000000000000000ffff0ad5956bo443;
        path=/; Httponly; Secure
    body:
      encoding: UTF-8
      string: '{"nextGenCSO":"nF45G0NfuNLV2rQqtwhuW0kNaMLk62lpSzIzeXKiiY3qNqSnuutDQ8FqtVgmrt2qinaWhJwjaEX1p28baa9wLGskNWV0ZHkP7WEDwtZOdC9kH9440pfOmHzNgjt9ZpLk","loginResult":"0"}'
  recorded_at: Fri, 29 Oct 2021 14:14:49 GMT
- request:
    method: post
    uri: https://qa-pcl.uscourts.gov/pcl-public-api/rest/cases/find?page=2
    body:
      encoding: UTF-8
      string: '{"caseTitle":"THE"}'
    headers:
      User-Agent:
      - Faraday v1.8.0
      Content-Type:
      - application/json
      Accept:
      - application/json
      X-Next-Gen-Cso:
      - nF45G0NfuNLV2rQqtwhuW0kNaMLk62lpSzIzeXKiiY3qNqSnuutDQ8FqtVgmrt2qinaWhJwjaEX1p28baa9wLGskNWV0ZHkP7WEDwtZOdC9kH9440pfOmHzNgjt9ZpLk
      Accept-Encoding:
      - gzip;q=1.0,deflate;q=0.6,identity;q=0.3
  response:
    status:
      code: 200
      message: '200'
    headers:
      Date:
      - Fri, 29 Oct 2021 14:14:49 GMT
      Server:
      - Apache
      X-Content-Type-Options:
      - nosniff
      X-Frame-Options:
      - SAMEORIGIN
      X-Next-Gen-Cso:
      - nF45G0NfuNLV2rQqtwhuW0kNaMLk62lpSzIzeXKiiY3qNqSnuutDQ8FqtVgmrt2qinaWhJwjaEX1p28baa9wLGskNWV0ZHkP7WEDwtZOdC9kH9440pfOmHzNgjt9ZpLk
      X-Xss-Protection:
      - 1; mode=block
      Strict-Transport-Security:
      - max-age=10886400; includeSubDomains; preload
      X-Ua-Compatible:
      - IE=edge,chrome=1
      Transfer-Encoding:
      - chunked
      Content-Type:
      - application/json
    body:
      encoding: UTF-8
      string: '{"receipt":{"transactionDate":"2021-10-29T09:14:49.557-0500","billablePages":0,"loginId":"<LOGIN>","clientCode":"","firmId":"","search":"All
        Courts; Case Title THE; Page: 3","description":"All Court Types Case Search","csoId":4697705,"reportId":"87d243d1-5385-437a-9b0f-3feaa085fffe","searchFee":".00"},"pageInfo":{"number":2,"size":54,"totalPages":51,"totalElements":2754,"numberOfElements":54,"first":false,"last":false},"content":[{"courtId":"azttca","caseId":23706,"caseYear":1997,"caseNumber":4069,"caseOffice":"0","caseType":"cv","caseTitle":"The
        Farmers and v. St. Paul Fire and","dateFiled":"1997-11-20","dateTermed":"1998-05-11","natureOfSuit":"4110","jurisdictionType":"Appellate","effectiveDateClosed":"1998-05-11","caseLink":"https://ecf.tc1a.aztc.uscourts.gov/cmecf/servlet/TransportRoom?servlet=CaseSummary.jsp?caseNum=23706&dktType=dktPublic&incOrigDkt=Y&incDktEntries=Y","caseNumberFull":"0:1997cv04069"},{"courtId":"aztxca","caseId":23706,"caseYear":1997,"caseNumber":4069,"caseOffice":"0","caseType":"cv","caseTitle":"The
        Farmers and v. St. Paul Fire and","dateFiled":"1997-11-20","dateTermed":"1998-05-11","natureOfSuit":"4110","jurisdictionType":"Appellate","effectiveDateClosed":"1998-05-11","caseNumberFull":"0:1997cv04069"},{"courtId":"cm2ca","caseId":23706,"caseYear":1997,"caseNumber":4069,"caseOffice":"0","caseType":"cv","caseTitle":"The
        Farmers and v. St. Paul Fire and","dateFiled":"1997-11-20","dateTermed":"1998-05-11","natureOfSuit":"4110","jurisdictionType":"Appellate","effectiveDateClosed":"1998-05-11","caseNumberFull":"0:1997cv04069"},{"courtId":"azttbk","caseId":5078,"caseYear":2003,"caseNumber":1295,"caseOffice":"4","caseType":"bk","caseTitle":"The
        Fee Corporation","dateFiled":"2003-07-22","bankruptcyChapter":"11","jointBankruptcyFlag":"n","jurisdictionType":"Bankruptcy","caseLink":"https://ecf.tc1b.aztc.uscourts.gov/cgi-bin/iqquerymenu.pl?5078","caseNumberFull":"4:2003bk01295"},{"courtId":"azttbk","caseId":5494,"caseYear":2003,"caseNumber":1452,"caseOffice":"1","caseType":"bk","caseTitle":"The
        Fee Corporation","dateFiled":"2003-08-25","bankruptcyChapter":"11","jointBankruptcyFlag":"n","jurisdictionType":"Bankruptcy","caseLink":"https://ecf.tc1b.aztc.uscourts.gov/cgi-bin/iqquerymenu.pl?5494","caseNumberFull":"1:2003bk01452"},{"courtId":"azttbk","caseId":5558,"caseYear":2003,"caseNumber":1486,"caseOffice":"4","caseType":"bk","caseTitle":"The
        Fee Corporation","dateFiled":"2003-08-29","bankruptcyChapter":"11","jointBankruptcyFlag":"n","jurisdictionType":"Bankruptcy","caseLink":"https://ecf.tc1b.aztc.uscourts.gov/cgi-bin/iqquerymenu.pl?5558","caseNumberFull":"4:2003bk01486"},{"courtId":"azttbk","caseId":7589,"caseYear":2004,"caseNumber":658,"caseOffice":"1","caseType":"bk","caseTitle":"The
        Fee Corporation","dateFiled":"2004-03-03","bankruptcyChapter":"11","jointBankruptcyFlag":"n","jurisdictionType":"Bankruptcy","caseLink":"https://ecf.tc1b.aztc.uscourts.gov/cgi-bin/iqquerymenu.pl?7589","caseNumberFull":"1:2004bk00658"},{"courtId":"tc1bk","caseId":5078,"caseYear":2003,"caseNumber":1295,"caseOffice":"4","caseType":"bk","caseTitle":"The
        Fee Corporation","dateFiled":"2003-07-22","bankruptcyChapter":"11","jointBankruptcyFlag":"n","jurisdictionType":"Bankruptcy","caseNumberFull":"4:2003bk01295"},{"courtId":"tc1bk","caseId":5494,"caseYear":2003,"caseNumber":1452,"caseOffice":"1","caseType":"bk","caseTitle":"The
        Fee Corporation","dateFiled":"2003-08-25","bankruptcyChapter":"11","jointBankruptcyFlag":"n","jurisdictionType":"Bankruptcy","caseNumberFull":"1:2003bk01452"},{"courtId":"tc1bk","caseId":5558,"caseYear":2003,"caseNumber":1486,"caseOffice":"4","caseType":"bk","caseTitle":"The
        Fee Corporation","dateFiled":"2003-08-29","bankruptcyChapter":"11","jointBankruptcyFlag":"n","jurisdictionType":"Bankruptcy","caseNumberFull":"4:2003bk01486"},{"courtId":"tc1bk","caseId":7589,"caseYear":2004,"caseNumber":658,"caseOffice":"1","caseType":"bk","caseTitle":"The
        Fee Corporation","dateFiled":"2004-03-03","bankruptcyChapter":"11","jointBankruptcyFlag":"n","jurisdictionType":"Bankruptcy","caseNumberFull":"1:2004bk00658"},{"courtId":"azttdc","caseId":62648,"caseYear":2012,"caseNumber":348,"caseOffice":"2","caseType":"cv","caseTitle":"The
        Firm v. HALL","dateFiled":"2012-06-11","natureOfSuit":"290","jurisdictionType":"Civil","caseLink":"https://ecf.tc1d.aztc.uscourts.gov/cgi-bin/iqquerymenu.pl?62648","caseNumberFull":"2:2012cv00348"},{"courtId":"azttdc","caseId":62687,"caseYear":2012,"caseNumber":349,"caseOffice":"2","caseType":"cv","caseTitle":"The
        Firm v. JAMES","dateFiled":"2012-06-14","natureOfSuit":"245","jurisdictionType":"Civil","caseLink":"https://ecf.tc1d.aztc.uscourts.gov/cgi-bin/iqquerymenu.pl?62687","caseNumberFull":"2:2012cv00349"},{"courtId":"azttbk","caseId":24722,"caseYear":2011,"caseNumber":914,"caseOffice":"6","caseType":"bk","caseTitle":"The
        First Industry","dateFiled":"2011-12-14","bankruptcyChapter":"11","jointBankruptcyFlag":"n","jurisdictionType":"Bankruptcy","caseLink":"https://ecf.tc1b.aztc.uscourts.gov/cgi-bin/iqquerymenu.pl?24722","caseNumberFull":"6:2011bk00914"},{"courtId":"azttbk","caseId":24728,"caseYear":2011,"caseNumber":919,"caseOffice":"6","caseType":"bk","caseTitle":"The
        First Industry","dateFiled":"2011-12-14","bankruptcyChapter":"11","jointBankruptcyFlag":"n","jurisdictionType":"Bankruptcy","caseLink":"https://ecf.tc1b.aztc.uscourts.gov/cgi-bin/iqquerymenu.pl?24728","caseNumberFull":"6:2011bk00919"},{"courtId":"tc1bk","caseId":24722,"caseYear":2011,"caseNumber":914,"caseOffice":"6","caseType":"bk","caseTitle":"The
        First Industry","dateFiled":"2011-12-14","bankruptcyChapter":"11","jointBankruptcyFlag":"n","jurisdictionType":"Bankruptcy","caseNumberFull":"6:2011bk00914"},{"courtId":"tc1bk","caseId":24728,"caseYear":2011,"caseNumber":919,"caseOffice":"6","caseType":"bk","caseTitle":"The
        First Industry","dateFiled":"2011-12-14","bankruptcyChapter":"11","jointBankruptcyFlag":"n","jurisdictionType":"Bankruptcy","caseNumberFull":"6:2011bk00919"},{"courtId":"azttbk","caseId":5090,"caseYear":2003,"caseNumber":1304,"caseOffice":"4","caseType":"bk","caseTitle":"The
        FitSmart Corporation","dateFiled":"2003-07-23","bankruptcyChapter":"11","jointBankruptcyFlag":"n","jurisdictionType":"Bankruptcy","caseLink":"https://ecf.tc1b.aztc.uscourts.gov/cgi-bin/iqquerymenu.pl?5090","caseNumberFull":"4:2003bk01304"},{"courtId":"azttbk","caseId":5091,"caseYear":2003,"caseNumber":1305,"caseOffice":"4","caseType":"bk","caseTitle":"The
        FitSmart Corporation","dateFiled":"2003-07-23","bankruptcyChapter":"11","jointBankruptcyFlag":"n","jurisdictionType":"Bankruptcy","caseLink":"https://ecf.tc1b.aztc.uscourts.gov/cgi-bin/iqquerymenu.pl?5091","caseNumberFull":"4:2003bk01305"},{"courtId":"azttbk","caseId":5495,"caseYear":2003,"caseNumber":1453,"caseOffice":"1","caseType":"bk","caseTitle":"The
        FitSmart Corporation","dateFiled":"2003-08-25","bankruptcyChapter":"11","jointBankruptcyFlag":"n","jurisdictionType":"Bankruptcy","caseLink":"https://ecf.tc1b.aztc.uscourts.gov/cgi-bin/iqquerymenu.pl?5495","caseNumberFull":"1:2003bk01453"},{"courtId":"azttbk","caseId":5559,"caseYear":2003,"caseNumber":1487,"caseOffice":"4","caseType":"bk","caseTitle":"The
        FitSmart Corporation","dateFiled":"2003-08-29","bankruptcyChapter":"11","jointBankruptcyFlag":"n","jurisdictionType":"Bankruptcy","caseLink":"https://ecf.tc1b.aztc.uscourts.gov/cgi-bin/iqquerymenu.pl?5559","caseNumberFull":"4:2003bk01487"},{"courtId":"tc1bk","caseId":5090,"caseYear":2003,"caseNumber":1304,"caseOffice":"4","caseType":"bk","caseTitle":"The
        FitSmart Corporation","dateFiled":"2003-07-23","bankruptcyChapter":"11","jointBankruptcyFlag":"n","jurisdictionType":"Bankruptcy","caseNumberFull":"4:2003bk01304"},{"courtId":"tc1bk","caseId":5091,"caseYear":2003,"caseNumber":1305,"caseOffice":"4","caseType":"bk","caseTitle":"The
        FitSmart Corporation","dateFiled":"2003-07-23","bankruptcyChapter":"11","jointBankruptcyFlag":"n","jurisdictionType":"Bankruptcy","caseNumberFull":"4:2003bk01305"},{"courtId":"tc1bk","caseId":5495,"caseYear":2003,"caseNumber":1453,"caseOffice":"1","caseType":"bk","caseTitle":"The
        FitSmart Corporation","dateFiled":"2003-08-25","bankruptcyChapter":"11","jointBankruptcyFlag":"n","jurisdictionType":"Bankruptcy","caseNumberFull":"1:2003bk01453"},{"courtId":"tc1bk","caseId":5559,"caseYear":2003,"caseNumber":1487,"caseOffice":"4","caseType":"bk","caseTitle":"The
        FitSmart Corporation","dateFiled":"2003-08-29","bankruptcyChapter":"11","jointBankruptcyFlag":"n","jurisdictionType":"Bankruptcy","caseNumberFull":"4:2003bk01487"},{"courtId":"azt5ca","caseId":4989,"caseYear":1992,"caseNumber":2118,"caseOffice":"0","caseType":"cv","caseTitle":"The
        Five Smiths, et al v. Natl Football League","dateFiled":"1992-05-19","dateTermed":"1995-07-20","natureOfSuit":"3410","jurisdictionType":"Appellate","effectiveDateClosed":"1995-07-20","caseNumberFull":"0:1992cv02118"},{"courtId":"aztica","caseId":4989,"caseYear":1992,"caseNumber":2118,"caseOffice":"0","caseType":"cv","caseTitle":"The
        Five Smiths, et al v. Natl Football League","dateFiled":"1992-05-19","dateTermed":"1995-07-20","natureOfSuit":"3410","jurisdictionType":"Appellate","effectiveDateClosed":"1995-07-20","caseNumberFull":"0:1992cv02118"},{"courtId":"azttca","caseId":4989,"caseYear":1992,"caseNumber":2118,"caseOffice":"0","caseType":"cv","caseTitle":"The
        Five Smiths, et al v. Natl Football League","dateFiled":"1992-05-19","dateTermed":"1995-07-20","natureOfSuit":"3410","jurisdictionType":"Appellate","effectiveDateClosed":"1995-07-20","caseLink":"https://ecf.tc1a.aztc.uscourts.gov/cmecf/servlet/TransportRoom?servlet=CaseSummary.jsp?caseNum=4989&dktType=dktPublic&incOrigDkt=Y&incDktEntries=Y","caseNumberFull":"0:1992cv02118"},{"courtId":"aztxca","caseId":4989,"caseYear":1992,"caseNumber":2118,"caseOffice":"0","caseType":"cv","caseTitle":"The
        Five Smiths, et al v. Natl Football League","dateFiled":"1992-05-19","dateTermed":"1995-07-20","natureOfSuit":"3410","jurisdictionType":"Appellate","effectiveDateClosed":"1995-07-20","caseNumberFull":"0:1992cv02118"},{"courtId":"cm2ca","caseId":4989,"caseYear":1992,"caseNumber":2118,"caseOffice":"0","caseType":"cv","caseTitle":"The
        Five Smiths, et al v. Natl Football League","dateFiled":"1992-05-19","dateTermed":"1995-07-20","natureOfSuit":"3410","jurisdictionType":"Appellate","effectiveDateClosed":"1995-07-20","caseNumberFull":"0:1992cv02118"},{"courtId":"azt5ca","caseId":14282,"caseYear":1995,"caseNumber":1544,"caseOffice":"0","caseType":"ag","caseTitle":"The
        Florilli Corp. v. Federal Highway","dateFiled":"1995-03-07","dateTermed":"1995-05-05","natureOfSuit":"1","jurisdictionType":"Appellate","effectiveDateClosed":"1995-05-05","caseNumberFull":"0:1995ag01544"},{"courtId":"aztica","caseId":14282,"caseYear":1995,"caseNumber":1544,"caseOffice":"0","caseType":"ag","caseTitle":"The
        Florilli Corp. v. Federal Highway","dateFiled":"1995-03-07","dateTermed":"1995-05-05","natureOfSuit":"1","jurisdictionType":"Appellate","effectiveDateClosed":"1995-05-05","caseNumberFull":"0:1995ag01544"},{"courtId":"azttca","caseId":14282,"caseYear":1995,"caseNumber":1544,"caseOffice":"0","caseType":"ag","caseTitle":"The
        Florilli Corp. v. Federal Highway","dateFiled":"1995-03-07","dateTermed":"1995-05-05","natureOfSuit":"1","jurisdictionType":"Appellate","effectiveDateClosed":"1995-05-05","caseLink":"https://ecf.tc1a.aztc.uscourts.gov/cmecf/servlet/TransportRoom?servlet=CaseSummary.jsp?caseNum=14282&dktType=dktPublic&incOrigDkt=Y&incDktEntries=Y","caseNumberFull":"0:1995ag01544"},{"courtId":"aztxca","caseId":14282,"caseYear":1995,"caseNumber":1544,"caseOffice":"0","caseType":"ag","caseTitle":"The
        Florilli Corp. v. Federal Highway","dateFiled":"1995-03-07","dateTermed":"1995-05-05","natureOfSuit":"1","jurisdictionType":"Appellate","effectiveDateClosed":"1995-05-05","caseNumberFull":"0:1995ag01544"},{"courtId":"cm2ca","caseId":14282,"caseYear":1995,"caseNumber":1544,"caseOffice":"0","caseType":"ag","caseTitle":"The
        Florilli Corp. v. Federal Highway","dateFiled":"1995-03-07","dateTermed":"1995-05-05","natureOfSuit":"1","jurisdictionType":"Appellate","effectiveDateClosed":"1995-05-05","caseNumberFull":"0:1995ag01544"},{"courtId":"azttbk","caseId":24735,"caseYear":2011,"caseNumber":924,"caseOffice":"6","caseType":"bk","caseTitle":"The
        French Connection","dateFiled":"2011-12-14","bankruptcyChapter":"15","jointBankruptcyFlag":"n","jurisdictionType":"Bankruptcy","caseLink":"https://ecf.tc1b.aztc.uscourts.gov/cgi-bin/iqquerymenu.pl?24735","caseNumberFull":"6:2011bk00924"},{"courtId":"azttbk","caseId":24736,"caseYear":2011,"caseNumber":925,"caseOffice":"6","caseType":"bk","caseTitle":"The
        French Connection","dateFiled":"2011-12-14","bankruptcyChapter":"15","jointBankruptcyFlag":"n","jurisdictionType":"Bankruptcy","caseLink":"https://ecf.tc1b.aztc.uscourts.gov/cgi-bin/iqquerymenu.pl?24736","caseNumberFull":"6:2011bk00925"},{"courtId":"tc1bk","caseId":24735,"caseYear":2011,"caseNumber":924,"caseOffice":"6","caseType":"bk","caseTitle":"The
        French Connection","dateFiled":"2011-12-14","bankruptcyChapter":"15","jointBankruptcyFlag":"n","jurisdictionType":"Bankruptcy","caseNumberFull":"6:2011bk00924"},{"courtId":"tc1bk","caseId":24736,"caseYear":2011,"caseNumber":925,"caseOffice":"6","caseType":"bk","caseTitle":"The
        French Connection","dateFiled":"2011-12-14","bankruptcyChapter":"15","jointBankruptcyFlag":"n","jurisdictionType":"Bankruptcy","caseNumberFull":"6:2011bk00925"},{"courtId":"azt5ca","caseId":2083,"caseYear":1991,"caseNumber":2278,"caseOffice":"0","caseType":"cv","caseTitle":"The
        Get Away Club v. Jim Snyder, et al., et al","dateFiled":"1991-06-07","dateTermed":"1992-07-13","natureOfSuit":"3440","jurisdictionType":"Appellate","effectiveDateClosed":"1992-07-13","caseNumberFull":"0:1991cv02278"},{"courtId":"aztica","caseId":2083,"caseYear":1991,"caseNumber":2278,"caseOffice":"0","caseType":"cv","caseTitle":"The
        Get Away Club v. Jim Snyder, et al., et al","dateFiled":"1991-06-07","dateTermed":"1992-07-13","natureOfSuit":"3440","jurisdictionType":"Appellate","effectiveDateClosed":"1992-07-13","caseNumberFull":"0:1991cv02278"},{"courtId":"azttca","caseId":2083,"caseYear":1991,"caseNumber":2278,"caseOffice":"0","caseType":"cv","caseTitle":"The
        Get Away Club v. Jim Snyder, et al., et al","dateFiled":"1991-06-07","dateTermed":"1992-07-13","natureOfSuit":"3440","jurisdictionType":"Appellate","effectiveDateClosed":"1992-07-13","caseLink":"https://ecf.tc1a.aztc.uscourts.gov/cmecf/servlet/TransportRoom?servlet=CaseSummary.jsp?caseNum=2083&dktType=dktPublic&incOrigDkt=Y&incDktEntries=Y","caseNumberFull":"0:1991cv02278"},{"courtId":"aztxca","caseId":2083,"caseYear":1991,"caseNumber":2278,"caseOffice":"0","caseType":"cv","caseTitle":"The
        Get Away Club v. Jim Snyder, et al., et al","dateFiled":"1991-06-07","dateTermed":"1992-07-13","natureOfSuit":"3440","jurisdictionType":"Appellate","effectiveDateClosed":"1992-07-13","caseNumberFull":"0:1991cv02278"},{"courtId":"cm2ca","caseId":2083,"caseYear":1991,"caseNumber":2278,"caseOffice":"0","caseType":"cv","caseTitle":"The
        Get Away Club v. Jim Snyder, et al., et al","dateFiled":"1991-06-07","dateTermed":"1992-07-13","natureOfSuit":"3440","jurisdictionType":"Appellate","effectiveDateClosed":"1992-07-13","caseNumberFull":"0:1991cv02278"},{"courtId":"cm8bk","caseId":1815,"caseYear":2002,"caseNumber":15,"caseOffice":"1","caseType":"bk","caseTitle":"The
        Grandslam and BP TEST EMAIL ONE NOTICE","dateFiled":"2002-10-28","dateTermed":"2007-10-11","dateDischarged":"2007-10-11","bankruptcyChapter":"7","dispositionMethod":"Standard
        Discharge","jointBankruptcyFlag":"n","jurisdictionType":"Bankruptcy","effectiveDateClosed":"2007-10-11","caseNumberFull":"1:2002bk00015"},{"courtId":"cmmbk","caseId":1815,"caseYear":2002,"caseNumber":15,"caseOffice":"1","caseType":"bk","caseTitle":"The
        Grandslam and BP TEST EMAIL ONE NOTICE","dateFiled":"2002-10-28","dateTermed":"2007-10-11","dateDischarged":"2007-10-11","bankruptcyChapter":"7","dispositionMethod":"Standard
        Discharge","jointBankruptcyFlag":"n","jurisdictionType":"Bankruptcy","effectiveDateClosed":"2007-10-11","caseNumberFull":"1:2002bk00015"},{"courtId":"azttdc","caseId":62690,"caseYear":2012,"caseNumber":350,"caseOffice":"2","caseType":"cv","caseTitle":"The
        Green House v. HOLYCROSS","dateFiled":"2012-06-14","natureOfSuit":"220","jurisdictionType":"Civil","caseLink":"https://ecf.tc1d.aztc.uscourts.gov/cgi-bin/iqquerymenu.pl?62690","caseNumberFull":"2:2012cv00350"},{"courtId":"azttbk","caseId":5200,"caseYear":2003,"caseNumber":1338,"caseOffice":"4","caseType":"bk","caseTitle":"The
        Hair Cut Store","dateFiled":"2003-07-31","bankruptcyChapter":"11","jointBankruptcyFlag":"n","jurisdictionType":"Bankruptcy","caseLink":"https://ecf.tc1b.aztc.uscourts.gov/cgi-bin/iqquerymenu.pl?5200","caseNumberFull":"4:2003bk01338"},{"courtId":"azttbk","caseId":7653,"caseYear":2004,"caseNumber":681,"caseOffice":"1","caseType":"bk","caseTitle":"The
        Hair Cut Store","dateFiled":"2004-03-12","bankruptcyChapter":"7","jointBankruptcyFlag":"n","jurisdictionType":"Bankruptcy","caseLink":"https://ecf.tc1b.aztc.uscourts.gov/cgi-bin/iqquerymenu.pl?7653","caseNumberFull":"1:2004bk00681"},{"courtId":"tc1bk","caseId":5200,"caseYear":2003,"caseNumber":1338,"caseOffice":"4","caseType":"bk","caseTitle":"The
        Hair Cut Store","dateFiled":"2003-07-31","bankruptcyChapter":"11","jointBankruptcyFlag":"n","jurisdictionType":"Bankruptcy","caseNumberFull":"4:2003bk01338"},{"courtId":"tc1bk","caseId":7653,"caseYear":2004,"caseNumber":681,"caseOffice":"1","caseType":"bk","caseTitle":"The
        Hair Cut Store","dateFiled":"2004-03-12","bankruptcyChapter":"7","jointBankruptcyFlag":"n","jurisdictionType":"Bankruptcy","caseNumberFull":"1:2004bk00681"},{"courtId":"azttdc","caseId":10344,"caseYear":2007,"caseNumber":95,"caseOffice":"7","caseType":"cv","caseTitle":"The
        Ham Bone v. HAL Nederland N V","dateFiled":"2007-05-30","natureOfSuit":"110","jurisdictionType":"Civil","caseLink":"https://ecf.tc1d.aztc.uscourts.gov/cgi-bin/iqquerymenu.pl?10344","caseNumberFull":"7:2007cv00095"},{"courtId":"cm8bk","caseId":133197,"caseYear":2010,"caseNumber":2157,"caseOffice":"5","caseType":"bk","caseTitle":"The
        Hamburglar","dateFiled":"2010-06-09","bankruptcyChapter":"11","jointBankruptcyFlag":"n","jurisdictionType":"Bankruptcy","caseNumberFull":"5:2010bk02157"},{"courtId":"cm8bk","caseId":133320,"caseYear":2010,"caseNumber":2274,"caseOffice":"9","caseType":"bk","caseTitle":"The
        Hamburglar","dateFiled":"2010-07-20","bankruptcyChapter":"11","jointBankruptcyFlag":"n","jurisdictionType":"Bankruptcy","caseNumberFull":"9:2010bk02274"}],"masterCase":null}'
  recorded_at: Fri, 29 Oct 2021 14:14:49 GMT
recorded_with: VCR 6.0.0
